%YAML 1.1
%TAG !u! tag:unity3d.com,2011:
--- !u!114 &11400000
MonoBehaviour:
  m_ObjectHideFlags: 0
  m_CorrespondingSourceObject: {fileID: 0}
  m_PrefabInstance: {fileID: 0}
  m_PrefabAsset: {fileID: 0}
  m_GameObject: {fileID: 0}
  m_Enabled: 1
  m_EditorHideFlags: 0
  m_Script: {fileID: 11500000, guid: 692837ab992bdc644b04684a1004fa8a, type: 3}
  m_Name: CoverAction
  m_EditorClassIdentifier: 
  coverLayer:
    serializedVersion: 2
    m_Bits: 128
  occlusionLayer:
    serializedVersion: 2
    m_Bits: 1
